digraph "AbstractBall"
{
  edge [fontname="Helvetica",fontsize="10",labelfontname="Helvetica",labelfontsize="10"];
  node [fontname="Helvetica",fontsize="10",shape=record];
  Node0 [label="AbstractBall",height=0.2,width=0.4,color="black", fillcolor="grey75", style="filled", fontcolor="black"];
  Node0 -> Node1 [dir="back",color="midnightblue",fontsize="10",style="solid",fontname="Helvetica"];
  Node1 [label="Ball",height=0.2,width=0.4,color="black", fillcolor="white", style="filled",URL="$classBall.html",tooltip="The ball class is an implementation of the abstract ball class. Nothing has changed. "];
}
