digraph "Ball"
{
  edge [fontname="Helvetica",fontsize="10",labelfontname="Helvetica",labelfontsize="10"];
  node [fontname="Helvetica",fontsize="10",shape=record];
  Node2 [label="Ball",height=0.2,width=0.4,color="black", fillcolor="grey75", style="filled", fontcolor="black"];
  Node3 -> Node2 [dir="back",color="midnightblue",fontsize="10",style="solid",fontname="Helvetica"];
  Node3 [label="AbstractBall",height=0.2,width=0.4,color="black", fillcolor="white", style="filled",URL="$classAbstractBall.html",tooltip="An abstract ball class. "];
  Node4 -> Node3 [dir="back",color="darkorchid3",fontsize="10",style="dashed",label=" m_coordinate" ,fontname="Helvetica"];
  Node4 [label="Coordinate",height=0.2,width=0.4,color="black", fillcolor="white", style="filled",URL="$classCoordinate.html",tooltip="The Coordinate class is used for any balls in the program. "];
}
