digraph "Graphical Class Hierarchy"
{
  edge [fontname="Helvetica",fontsize="10",labelfontname="Helvetica",labelfontsize="10"];
  node [fontname="Helvetica",fontsize="10",shape=record];
  rankdir="LR";
  Node0 [label="AbstractBuilder",height=0.2,width=0.4,color="black", fillcolor="white", style="filled",URL="$classAbstractBuilder.html",tooltip="The Builder is responsible for building each object for the pool game. "];
  Node0 -> Node1 [dir="back",color="midnightblue",fontsize="10",style="solid",fontname="Helvetica"];
  Node1 [label="PoolBuilder",height=0.2,width=0.4,color="black", fillcolor="white", style="filled",URL="$classPoolBuilder.html",tooltip="The PoolBuilder is a concrete implementation of the abstract builder. "];
}
